{
  "project_info": {
    "project_number": "345229032732",
    "firebase_url": "https://cookieapp-5a5f3.firebaseio.com",
    "project_id": "cookieapp-5a5f3",
    "storage_bucket": "cookieapp-5a5f3.appspot.com"
  },
  "client": [
    {
      "client_info": {
        "mobilesdk_app_id": "1:345229032732:android:5208c06ebcb526fe",
        "android_client_info": {
          "package_name": "com.realdolmen.mylayout"
        }
      },
      "oauth_client": [
        {
          "client_id": "345229032732-mliooi7eg42dtbnrc8ns32tp7s4bj5ni.apps.googleusercontent.com",
          "client_type": 1,
          "android_info": {
            "package_name": "com.realdolmen.mylayout",
            "certificate_hash": "d52f6f038f6bca7d7d6512e88bff2c7597bc6f2d"
          }
        },
        {
          "client_id": "345229032732-kch3nr8b73ntl53rfu5q1iomeqpes84l.apps.googleusercontent.com",
          "client_type": 3
        }
      ],
      "api_key": [
        {
          "current_key": "AIzaSyBu8lTfYKt_Ec3I_UZDDUXuc7Z0S4WSSo8"
        }
      ],
      "services": {
        "appinvite_service": {
          "other_platform_oauth_client": [
            {
              "client_id": "345229032732-kch3nr8b73ntl53rfu5q1iomeqpes84l.apps.googleusercontent.com",
              "client_type": 3
            }
          ]
        }
      }
    }
  ],
  "configuration_version": "1"
}